# x	y	u	v	mask
  0.7149	 15.9345	 11.9479	  4.7542	  0.0000
  1.8753	 15.9345	 12.9958	-10.2958	  0.0000
  3.0356	 15.9345	  3.4969	 -5.2002	  0.0000
  4.1960	 15.9345	-11.9664	 -5.1610	  0.0000
  5.3564	 15.9345	-12.9765	 -5.7638	  0.0000
  6.5168	 15.9345	-12.9653	-15.1816	  0.0000
  7.6772	 15.9345	 -9.1867	 -8.0782	  0.0000
  8.8375	 15.9345	 -9.0846	 -7.7112	  0.0000
  9.9979	 15.9345	-12.9598	 -8.8806	  0.0000
 11.1583	 15.9345	-11.4281	  0.5057	  1.0000
 12.3187	 15.9345	-13.0694	-11.2322	  0.0000
 13.4791	 15.9345	-10.1291	-11.8976	  0.0000
 14.6395	 15.9345	-12.9969	-13.6168	  0.0000
 15.7998	 15.9345	-14.7649	 15.7343	  0.0000
 16.9602	 15.9345	 -6.5997	 16.6901	  0.0000
 18.1206	 15.9345	 -6.0024	 15.4159	  0.0000
 19.2810	 15.9345	 16.3479	 17.2103	  0.0000
  0.7149	 14.7741	 12.9598	 -7.5310	  0.0000
  1.8753	 14.7741	 13.0129	 16.2264	  0.0000
  3.0356	 14.7741	 12.9742	 11.4489	  0.0000
  4.1960	 14.7741	  6.0761	 -2.5168	  0.0000
  5.3564	 14.7741	  2.3431	 10.4378	  0.0000
  6.5168	 14.7741	-13.0892	 10.3621	  0.0000
  7.6772	 14.7741	-12.8983	  4.9516	  0.0000
  8.8375	 14.7741	-13.0079	  9.0996	  0.0000
  9.9979	 14.7741	-13.0010	  2.1170	  0.0000
 11.1583	 14.7741	-12.9964	  7.6416	  0.0000
 12.3187	 14.7741	-13.0219	  7.2355	  0.0000
 13.4791	 14.7741	  1.0703	 13.0673	  0.0000
 14.6395	 14.7741	-12.8126	 13.1371	  0.0000
 15.7998	 14.7741	 -3.8717	-14.8444	  0.0000
 16.9602	 14.7741	-10.4304	 11.1347	  0.0000
 18.1206	 14.7741	-13.0207	 -4.3153	  0.0000
 19.2810	 14.7741	 -2.7675	  1.2728	  0.0000
  0.7149	 13.6138	-14.2638	 13.2916	  0.0000
  1.8753	 13.6138	 13.1989	 13.5906	  0.0000
  3.0356	 13.6138	 12.9770	 13.8119	  0.0000
  4.1960	 13.6138	-15.6029	 13.7134	  0.0000
  5.3564	 13.6138	  9.9062	 13.7330	  0.0000
  6.5168	 13.6138	  0.4998	-15.2160	  0.0000
  7.6772	 13.6138	-15.9240	 13.7828	  0.0000
  8.8375	 13.6138	-12.9574	 16.5814	  0.0000
  9.9979	 13.6138	-11.8601	-12.9178	  0.0000
 11.1583	 13.6138	-12.9774	 -7.5278	  0.0000
 12.3187	 13.6138	-13.0251	 -2.7864	  0.0000
 13.4791	 13.6138	-12.9741	 14.2916	  0.0000
 14.6395	 13.6138	-13.2436	 10.5738	  0.0000
 15.7998	 13.6138	-12.8507	 16.5837	  0.0000
 16.9602	 13.6138	-12.1389	-13.0422	  0.0000
 18.1206	 13.6138	-13.0528	-15.6643	  0.0000
 19.2810	 13.6138	 -1.2863	 16.9001	  0.0000
  0.7149	 12.4534	 13.0726	  5.5529	  0.0000
  1.8753	 12.4534	 13.0174	-13.0089	  0.0000
  3.0356	 12.4534	 13.0072	-13.0010	  0.0000
  4.1960	 12.4534	 12.9738	-13.0130	  0.0000
  5.3564	 12.4534	 -9.9317	-13.0674	  0.0000
  6.5168	 12.4534	-12.9822	-13.0683	  0.0000
  7.6772	 12.4534	-13.0270	-13.0468	  0.0000
  8.8375	 12.4534	-12.9813	-13.0595	  0.0000
  9.9979	 12.4534	-12.9943	-13.0971	  0.0000
 11.1583	 12.4534	-12.9989	-13.0718	  0.0000
 12.3187	 12.4534	-13.0000	  2.2185	  0.0000
 13.4791	 12.4534	-12.9978	  0.8997	  0.0000
 14.6395	 12.4534	-13.0132	  3.0117	  0.0000
 15.7998	 12.4534	-13.0297	  1.4600	  0.0000
 16.9602	 12.4534	-13.0376	  9.8554	  0.0000
 18.1206	 12.4534	-12.9521	  7.3953	  0.0000
 19.2810	 12.4534	-16.6464	-11.6353	  0.0000
  0.7149	 11.2930	 13.0176	-13.0098	  0.0000
  1.8753	 11.2930	 12.9728	-12.9757	  0.0000
  3.0356	 11.2930	 12.9734	-12.9769	  0.0000
  4.1960	 11.2930	 11.7506	-12.9881	  0.0000
  5.3564	 11.2930	 13.4996	-12.9965	  0.0000
  6.5168	 11.2930	-12.9576	-12.9976	  0.0000
  7.6772	 11.2930	-12.9697	-12.9766	  0.0000
  8.8375	 11.2930	-12.9792	-12.9774	  0.0000
  9.9979	 11.2930	-12.9735	-12.9739	  0.0000
 11.1583	 11.2930	-12.9736	-12.9656	  0.0000
 12.3187	 11.2930	-13.0140	 -8.5084	  0.0000
 13.4791	 11.2930	-13.0563	 12.5991	  0.0000
 14.6395	 11.2930	 -3.0272	 12.8766	  0.0000
 15.7998	 11.2930	-11.2556	 10.5334	  0.0000
 16.9602	 11.2930	 -1.8369	-13.1813	  0.0000
 18.1206	 11.2930	-10.3485	 -4.3698	  0.0000
 19.2810	 11.2930	 -4.9413	 -4.3155	  0.0000
  0.7149	 10.1326	 12.9751	-12.9577	  0.0000
  1.8753	 10.1326	 12.9811	-12.9681	  0.0000
  3.0356	 10.1326	 12.9694	-12.9709	  0.0000
  4.1960	 10.1326	 12.9608	-12.9864	  0.0000
  5.3564	 10.1326	 13.0457	-12.9816	  0.0000
  6.5168	 10.1326	-12.9540	-12.9870	  0.0000
  7.6772	 10.1326	-12.9574	-12.9742	  0.0000
  8.8375	 10.1326	-12.9825	-12.9779	  0.0000
  9.9979	 10.1326	-12.9772	-12.9764	  0.0000
 11.1583	 10.1326	-12.9840	-12.9718	  0.0000
 12.3187	 10.1326	-13.0219	  9.3783	  0.0000
 13.4791	 10.1326	-13.8936	  2.5766	  0.0000
 14.6395	 10.1326	-11.8823	  2.8980	  0.0000
 15.7998	 10.1326	 13.0130	 -9.1676	  0.0000
 16.9602	 10.1326	-10.6410	 -0.2050	  0.0000
 18.1206	 10.1326	 -7.9090	 -1.8487	  0.0000
 19.2810	 10.1326	 -7.3969	 -1.8778	  0.0000
  0.7149	  8.9722	 12.9936	 -6.2631	  0.0000
  1.8753	  8.9722	 12.9841	-12.9515	  0.0000
  3.0356	  8.9722	 12.9679	-12.8680	  0.0000
  4.1960	  8.9722	 12.9994	-10.4291	  0.0000
  5.3564	  8.9722	  8.9973	 -8.8610	  0.0000
  6.5168	  8.9722	-12.9890	-11.4826	  0.0000
  7.6772	  8.9722	-13.0124	-12.9587	  0.0000
  8.8375	  8.9722	-12.9769	-12.9629	  0.0000
  9.9979	  8.9722	-13.0118	 -5.9968	  0.0000
 11.1583	  8.9722	-12.9774	  3.8826	  0.0000
 12.3187	  8.9722	-14.8133	  0.7950	  0.0000
 13.4791	  8.9722	-14.1674	  0.2712	  0.0000
 14.6395	  8.9722	-14.6982	-16.2460	  0.0000
 15.7998	  8.9722	 -8.4047	 -1.4755	  0.0000
 16.9602	  8.9722	 -8.2909	 -1.2352	  0.0000
 18.1206	  8.9722	 -7.7099	 -1.2059	  0.0000
 19.2810	  8.9722	 -9.5883	  0.8521	  0.0000
  0.7149	  7.8119	 12.9858	 12.9928	  0.0000
  1.8753	  7.8119	 12.9705	 12.9930	  0.0000
  3.0356	  7.8119	 12.9889	 -0.0707	  0.0000
  4.1960	  7.8119	 12.9898	 13.0721	  0.0000
  5.3564	  7.8119	 -0.3185	 -0.3849	  0.0000
  6.5168	  7.8119	-12.9761	 12.9783	  0.0000
  7.6772	  7.8119	-12.9982	 12.9669	  0.0000
  8.8375	  7.8119	-12.9851	 12.9929	  0.0000
  9.9979	  7.8119	-13.0452	  9.9877	  0.0000
 11.1583	  7.8119	-12.5149	 13.0776	  0.0000
 12.3187	  7.8119	-12.8786	  4.5044	  0.0000
 13.4791	  7.8119	  5.4860	 -5.4208	  0.0000
 14.6395	  7.8119	-12.9767	 -0.6529	  0.0000
 15.7998	  7.8119	 -8.2759	-11.6424	  0.0000
 16.9602	  7.8119	 -5.7833	  1.3075	  0.0000
 18.1206	  7.8119	 -7.6628	 -0.5692	  0.0000
 19.2810	  7.8119	-11.9715	 -4.3179	  0.0000
  0.7149	  6.6515	 12.9636	 12.9550	  0.0000
  1.8753	  6.6515	 12.9846	 12.9753	  0.0000
  3.0356	  6.6515	 12.9700	 12.9784	  0.0000
  4.1960	  6.6515	 12.9779	 12.9929	  0.0000
  5.3564	  6.6515	 -4.2707	 12.9655	  0.0000
  6.5168	  6.6515	-11.5310	 12.9730	  0.0000
  7.6772	  6.6515	-12.9852	 12.9747	  0.0000
  8.8375	  6.6515	-12.9965	 12.9750	  0.0000
  9.9979	  6.6515	-13.0766	  5.5118	  0.0000
 11.1583	  6.6515	-13.0003	-14.4436	  0.0000
 12.3187	  6.6515	-15.6972	 -1.7645	  0.0000
 13.4791	  6.6515	  1.1464	  3.5344	  0.0000
 14.6395	  6.6515	 -5.9543	 13.4513	  0.0000
 15.7998	  6.6515	 -8.1528	  0.3493	  0.0000
 16.9602	  6.6515	-10.3028	  2.3107	  0.0000
 18.1206	  6.6515	 -7.6663	  0.0348	  0.0000
 19.2810	  6.6515	 -6.7652	 -0.0350	  0.0000
  0.7149	  5.4911	 12.9623	 12.9640	  0.0000
  1.8753	  5.4911	 12.9707	 12.9737	  0.0000
  3.0356	  5.4911	 12.9767	 12.9758	  0.0000
  4.1960	  5.4911	 12.9706	 12.9771	  0.0000
  5.3564	  5.4911	 12.3174	 12.9896	  0.0000
  6.5168	  5.4911	-12.9961	 12.9838	  0.0000
  7.6772	  5.4911	-12.9860	 12.9816	  0.0000
  8.8375	  5.4911	-12.9706	 12.9805	  0.0000
  9.9979	  5.4911	-12.9724	 12.9931	  0.0000
 11.1583	  5.4911	-12.9825	 11.9817	  0.0000
 12.3187	  5.4911	-12.9604	-11.8142	  0.0000
 13.4791	  5.4911	-10.2822	-15.6913	  0.0000
 14.6395	  5.4911	-16.7161	-12.9861	  0.0000
 15.7998	  5.4911	-14.9764	-12.6629	  0.0000
 16.9602	  5.4911	-12.1681	  5.1041	  0.0000
 18.1206	  5.4911	 -7.3016	  0.6474	  0.0000
 19.2810	  5.4911	 -8.6642	  2.7030	  0.0000
  0.7149	  4.3307	 13.0113	 12.9921	  0.0000
  1.8753	  4.3307	 12.9960	 12.9904	  0.0000
  3.0356	  4.3307	 12.9845	 12.9749	  0.0000
  4.1960	  4.3307	 12.9694	 12.9747	  0.0000
  5.3564	  4.3307	  9.3811	 12.9863	  0.0000
  6.5168	  4.3307	-13.0098	 12.9879	  0.0000
  7.6772	  4.3307	-12.9816	 12.9891	  0.0000
  8.8375	  4.3307	-12.9792	 12.9760	  0.0000
  9.9979	  4.3307	-12.9883	 12.9839	  0.0000
 11.1583	  4.3307	-12.9724	 12.9875	  0.0000
 12.3187	  4.3307	-13.0129	  7.5932	  0.0000
 13.4791	  4.3307	-12.9762	-10.7682	  0.0000
 14.6395	  4.3307	-13.0540	 -9.8672	  0.0000
 15.7998	  4.3307	-13.0647	-12.9547	  0.0000
 16.9602	  4.3307	-13.0070	-12.5546	  0.0000
 18.1206	  4.3307	 -7.2846	  1.4435	  0.0000
 19.2810	  4.3307	-12.0740	 12.2688	  0.0000
  0.7149	  3.1703	 -6.1180	 12.9746	  0.0000
  1.8753	  3.1703	 12.9794	 12.9732	  0.0000
  3.0356	  3.1703	 13.0063	 12.9873	  0.0000
  4.1960	  3.1703	 12.9872	 13.0066	  0.0000
  5.3564	  3.1703	 12.9551	 13.0033	  0.0000
  6.5168	  3.1703	-10.2651	 12.9948	  0.0000
  7.6772	  3.1703	-12.9863	 12.9983	  0.0000
  8.8375	  3.1703	-12.9856	 12.9838	  0.0000
  9.9979	  3.1703	-13.0050	 12.9845	  0.0000
 11.1583	  3.1703	-13.0034	 12.9767	  0.0000
 12.3187	  3.1703	-13.0128	 12.9646	  0.0000
 13.4791	  3.1703	-12.9851	 12.9666	  0.0000
 14.6395	  3.1703	-13.0059	  3.1348	  0.0000
 15.7998	  3.1703	-12.9416	 12.9956	  0.0000
 16.9602	  3.1703	-16.1618	  7.9035	  0.0000
 18.1206	  3.1703	-12.5877	 -5.2380	  0.0000
 19.2810	  3.1703	-12.5723	 -6.5225	  0.0000
  0.7149	  2.0099	-15.9406	-13.0300	  0.0000
  1.8753	  2.0099	 13.0512	-12.9680	  0.0000
  3.0356	  2.0099	 11.4785	-14.0776	  0.0000
  4.1960	  2.0099	-15.3295	-13.0802	  0.0000
  5.3564	  2.0099	 11.4481	-12.9514	  0.0000
  6.5168	  2.0099	 -5.8084	-12.9531	  0.0000
  7.6772	  2.0099	-12.9925	-12.1144	  0.0000
  8.8375	  2.0099	-12.9874	-12.9890	  0.0000
  9.9979	  2.0099	 -4.7713	 16.5865	  0.0000
 11.1583	  2.0099	-12.0167	  3.7644	  1.0000
 12.3187	  2.0099	-12.9799	  5.8448	  0.0000
 13.4791	  2.0099	 -2.6509	  0.9084	  0.0000
 14.6395	  2.0099	-13.0030	  0.1660	  0.0000
 15.7998	  2.0099	-12.9926	 -6.0672	  0.0000
 16.9602	  2.0099	-13.0070	-11.8918	  0.0000
 18.1206	  2.0099	-12.6008	-16.5509	  0.0000
 19.2810	  2.0099	-12.9765	 -2.0890	  0.0000
  0.7149	  0.8496	 13.0251	-13.0088	  0.0000
  1.8753	  0.8496	 13.0210	 -9.5752	  0.0000
  3.0356	  0.8496	 13.0048	 -4.1586	  0.0000
  4.1960	  0.8496	 12.9755	 -9.8350	  0.0000
  5.3564	  0.8496	  5.3804	 -9.7594	  0.0000
  6.5168	  0.8496	-13.0974	 -9.7257	  0.0000
  7.6772	  0.8496	-12.9716	 -8.7467	  0.0000
  8.8375	  0.8496	-12.9895	 -7.8969	  0.0000
  9.9979	  0.8496	-13.0311	 -7.2153	  0.0000
 11.1583	  0.8496	-12.9589	 -6.3680	  0.0000
 12.3187	  0.8496	-13.0542	 -7.6715	  0.0000
 13.4791	  0.8496	-12.9731	-10.3236	  0.0000
 14.6395	  0.8496	-12.9985	 -8.6807	  0.0000
 15.7998	  0.8496	-14.1623	 -9.4258	  0.0000
 16.9602	  0.8496	-12.9992	 -1.1116	  0.0000
 18.1206	  0.8496	-13.0469	 -1.1002	  0.0000
 19.2810	  0.8496	-12.9984	 -1.0781	  0.0000
